<svg width="96px" height="96px" viewBox="0 0 96 96">
  <title>addCalendar</title>
  <g id="icon" stroke="none" strokeWidth="1" fill="none" fillRule="evenodd">
    <g id="addCalendar" transform="translate(-542.000000, -831.000000)">
      <g id="addCalendarIcon" transform="translate(542.000000, 831.000000)">
        <g id="group-1" fill="#000000" fillRule="nonzero">
          <path id="path-1" d="M34.891251,46.7223587 C34.891251,47.6068796 34.1847915,48.3144963 33.3017171,48.3144963 L27.3360589,48.3144963 C26.4529845,48.3144963 25.7465249,47.6068796 25.7465249,46.7223587 L25.7465249,40.7469287 C25.7465249,39.8624079 26.4529845,39.1547912 27.3360589,39.1547912 L33.3017171,39.1547912 C34.1847915,39.1547912 34.891251,39.8624079 34.891251,40.7469287 L34.891251,46.7223587 Z M47.3524121,40.7665848 C47.3524121,39.8820639 46.6459526,39.1744472 45.7628782,39.1744472 L39.79722,39.1744472 C38.9141455,39.1744472 38.207686,39.8820639 38.207686,40.7665848 L38.207686,46.7420147 C38.207686,47.6265356 38.9141455,48.3341523 39.79722,48.3341523 L45.7628782,48.3341523 C46.6459526,48.3341523 47.3524121,47.6265356 47.3524121,46.7420147 L47.3524121,40.7665848 Z M59.8135732,40.7665848 C59.8135732,39.8820639 59.1071137,39.1744472 58.2240392,39.1744472 L52.258381,39.1744472 C51.3753066,39.1744472 50.6688471,39.8820639 50.6688471,40.7665848 L50.6688471,46.7420147 C50.6688471,47.6265356 51.3753066,48.3341523 52.258381,48.3341523 L58.2240392,48.3341523 C59.1071137,48.3341523 59.8135732,47.6265356 59.8135732,46.7420147 L59.8135732,40.7665848 Z M34.891251,52.9140049 C34.891251,52.029484 34.1847915,51.3218673 33.3017171,51.3218673 L27.3360589,51.3218673 C26.4529845,51.3218673 25.7465249,52.029484 25.7465249,52.9140049 L25.7465249,58.8894349 C25.7465249,59.7739558 26.4529845,60.4815725 27.3360589,60.4815725 L33.3017171,60.4815725 C34.1847915,60.4815725 34.891251,59.7739558 34.891251,58.8894349 L34.891251,52.9140049 Z M47.3524121,52.9140049 C47.3524121,52.029484 46.6459526,51.3218673 45.7628782,51.3218673 L39.79722,51.3218673 C38.9141455,51.3218673 38.207686,52.029484 38.207686,52.9140049 L38.207686,58.8894349 C38.207686,59.7739558 38.9141455,60.4815725 39.79722,60.4815725 L45.7628782,60.4815725 C46.6459526,60.4815725 47.3524121,59.7739558 47.3524121,58.8894349 L47.3524121,52.9140049 Z M58.2240392,51.3218673 L52.258381,51.3218673 C51.3753066,51.3218673 50.6688471,52.029484 50.6688471,52.9140049 L50.6688471,58.8894349 C50.6688471,59.7739558 51.3753066,60.4815725 52.258381,60.4815725 L58.2240392,60.4815725 C59.1071137,60.4815725 59.8135732,59.7739558 59.8135732,58.8894349 L59.8135732,52.9140049 C59.8135732,52.029484 59.1071137,51.3218673 58.2240392,51.3218673 Z M20.8209321,63.4692875 L14.8748978,63.4692875 C13.9918234,63.4692875 13.2853639,64.1769042 13.2853639,65.0614251 L13.2853639,71.036855 C13.2853639,71.9213759 13.9918234,72.6289926 14.8748978,72.6289926 L20.840556,72.6289926 C21.7236304,72.6289926 22.4300899,71.9213759 22.4300899,71.036855 L22.4300899,65.0614251 C22.4300899,64.1769042 21.7040065,63.4692875 20.8209321,63.4692875 Z M22.4300899,52.9140049 C22.4300899,52.029484 21.7236304,51.3218673 20.840556,51.3218673 L14.8748978,51.3218673 C13.9918234,51.3218673 13.2853639,52.029484 13.2853639,52.9140049 L13.2853639,58.8894349 C13.2853639,59.7739558 13.9918234,60.4815725 14.8748978,60.4815725 L20.840556,60.4815725 C21.7236304,60.4815725 22.4300899,59.7739558 22.4300899,58.8894349 L22.4300899,52.9140049 L22.4300899,52.9140049 Z M45.7628782,63.4692875 L39.79722,63.4692875 C38.9141455,63.4692875 38.207686,64.1769042 38.207686,65.0614251 L38.207686,71.036855 C38.207686,71.9213759 38.9141455,72.6289926 39.79722,72.6289926 L45.7628782,72.6289926 C46.6459526,72.6289926 47.3524121,71.9213759 47.3524121,71.036855 L47.3524121,65.0614251 C47.3524121,64.1769042 46.6459526,63.4692875 45.7628782,63.4692875 Z M33.3017171,63.4692875 L27.3360589,63.4692875 C26.4529845,63.4692875 25.7465249,64.1769042 25.7465249,65.0614251 L25.7465249,71.036855 C25.7465249,71.9213759 26.4529845,72.6289926 27.3360589,72.6289926 L33.3017171,72.6289926 C34.1847915,72.6289926 34.891251,71.9213759 34.891251,71.036855 L34.891251,65.0614251 C34.891251,64.1769042 34.1847915,63.4692875 33.3017171,63.4692875 Z M70.6852003,48.3341523 C71.5682747,48.3341523 72.2747343,47.6265356 72.2747343,46.7420147 L72.2747343,40.7665848 C72.2747343,39.8820639 71.5682747,39.1744472 70.6852003,39.1744472 L64.7195421,39.1744472 C63.8364677,39.1744472 63.1300082,39.8820639 63.1300082,40.7665848 L63.1300082,46.7420147 C63.1300082,47.6265356 63.8364677,48.3341523 64.7195421,48.3341523 L70.6852003,48.3341523 Z M9.36058872,85.6019656 L54.63287,85.6019656 C53.9067866,83.3218673 53.4946852,80.8845209 53.4750613,78.3685504 L9.36058872,78.3685504 C8.18315617,78.3685504 7.24121014,77.4054054 7.24121014,76.2457002 L7.24121014,33.5331695 L78.2207686,33.5331695 L78.2207686,53.4054054 C80.7326247,53.4250614 83.1659853,53.7985258 85.4423549,54.5257985 L85.4423549,18.5749386 C85.4423549,13.4054054 81.2428455,9.1990172 76.0817661,9.1990172 L65.6026165,9.1990172 L65.6026165,3.42014742 C65.6026165,1.53316953 64.0719542,0 62.1880621,0 L56.8699918,0 C54.9860998,0 53.4554374,1.53316953 53.4554374,3.42014742 L53.4554374,9.21867322 L31.9869174,9.21867322 L31.9869174,3.42014742 C31.9869174,1.53316953 30.4562551,0 28.572363,0 L23.2542927,0 C21.3704007,0 19.8397383,1.53316953 19.8397383,3.42014742 L19.8397383,9.21867322 L9.36058872,9.21867322 C4.1995094,9.21867322 0,13.4250614 0,18.5945946 L0,76.2457002 C0,81.3955774 4.1995094,85.6019656 9.36058872,85.6019656 Z M96,78.0933661 C96,87.980344 87.9934587,96 78.1226492,96 C68.2518397,96 60.2452984,87.980344 60.2452984,78.0933661 C60.2452984,68.2063882 68.2518397,60.1867322 78.1226492,60.1867322 C87.9934587,60.1867322 96,68.2063882 96,78.0933661 Z" />
        </g>
        <g id="group-2" transform="translate(72.000000, 71.000000)" stroke="#FFFFFF" strokeLinecap="round" strokeWidth="5">
          <line id="line-1" x1="-7.12676034e-15" y1="7.5" x2="13.1676206" y2="7.5" />
          <line id="line-2" x1="-7.12676034e-15" y1="7.5" x2="13.1676206" y2="7.5" transform="translate(6.583810, 7.500000) rotate(90.000000) translate(-6.583810, -7.500000) " />
        </g>
      </g>
    </g>
  </g>
</svg>
